{
    "name": "Shiba Inu",
    "description": "Shiba Inu Green to Play in Inu Adventure CriptoGame ",
    "image": "https://gitlab.com/exauherrera/azmita-game/-/raw/main/Inu%20Adventure/Character/INU00000000000001.png"
}
